{
    "KPlugin": {
        "Category": "Appearance",
        "Description": "Highlights a screen edge when approaching",
        "Description[ar]": "يُبرِز حافة الشاشة عند الاقتراب منها",
        "Description[az]": "Ekranın kənarlarına yaxınlaşdıqda onları vurğulayaraq seçir",
        "Description[be]": "Падсвятляе край экрана пры набліжэнні да яго",
        "Description[bg]": "Осветява края на екрана при приближаване",
        "Description[ca@valencia]": "Ressalta la vora de la pantalla en aproximar-se",
        "Description[ca]": "Ressalta la vora de la pantalla en aproximar-se",
        "Description[cs]": "Zvýrazní hranu obrazovky při přiblížení k ní",
        "Description[de]": "Bildschirmkante bei Annäherung hervorheben",
        "Description[en_GB]": "Highlights a screen edge when approaching",
        "Description[eo]": "Elstarigas ekranrandon kiam alproksimiĝas",
        "Description[es]": "Resalta el borde de la pantalla al acercarse a él",
        "Description[et]": "Ekraani serva esiletõstmine sellele lähenemisel",
        "Description[eu]": "Nabarmendu pantailaren ertz bat hurbiltzerakoan",
        "Description[fi]": "Korostaa näytön reunan sitä lähestyttäessä",
        "Description[fr]": "Mets en valeur le bord de l'écran à l'approche",
        "Description[he]": "מדגיש את קצוות המסך בעת התקרבות אליהם",
        "Description[hu]": "Kiemeli a képernyő szélét megközelítéskor",
        "Description[ia]": "Evidentia un margine de schermo quando on approxima se",
        "Description[id]": "Sorot tepian layar ketika kursor mendekati tepi",
        "Description[it]": "Evidenzia il bordo dello schermo quando ti avvicini",
        "Description[ja]": "近づいたときスクリーンエッジを強調表示します",
        "Description[ka]": "მიღწევისას ეკრანის კუთხის გამოკვეთა",
        "Description[ko]": "화면 경계에 도달할 때 강조하기",
        "Description[nl]": "Accentueert een schermrand bij nadering",
        "Description[nn]": "Framhevar ein skjermkant når han kjem nær",
        "Description[pl]": "Podświetla krawędzie ekranu przy zbliżaniu się do nich",
        "Description[pt]": "Realça um extremo do ecrã quando se aproxima",
        "Description[pt_BR]": "Destaca a borda da tela quando se aproxima",
        "Description[ro]": "Evidențiază o muchie a ecranului la apropiere",
        "Description[ru]": "Выделение края экрана при приближении к нему",
        "Description[sk]": "Zvýrazní okraj obrazovky pri priblížení",
        "Description[sl]": "Poudari rob zaslona, ko se mu bližate",
        "Description[sv]": "Markerar en skärmkant när man närmar sig den",
        "Description[ta]": "திரையின் ஓரத்தை நெருங்கும்போது அவ்வோரத்தை முன்னிலைப்படுத்தும்",
        "Description[tr]": "Yaklaşırken bir ekran kenarını vurgular",
        "Description[uk]": "Підсвічує край екрана у разі наближення вказівника",
        "Description[vi]": "Tô sáng cạnh màn hình khi tiến lại gần",
        "Description[x-test]": "xxHighlights a screen edge when approachingxx",
        "Description[zh_CN]": "接近屏幕边缘时高亮显示",
        "Description[zh_TW]": "接近一個螢幕邊緣時突顯它",
        "EnabledByDefault": true,
        "License": "GPL",
        "Name": "Screen Edge",
        "Name[ar]": "حافّة الشّاشة",
        "Name[az]": "Ekran kənarı",
        "Name[be]": "Край экрана",
        "Name[bg]": "Край на екрана",
        "Name[ca@valencia]": "Vora de la pantalla",
        "Name[ca]": "Vora de la pantalla",
        "Name[cs]": "Hrana obrazovky",
        "Name[de]": "Bildschirmkante",
        "Name[en_GB]": "Screen Edge",
        "Name[eo]": "Ekrana Rando",
        "Name[es]": "Borde de la pantalla",
        "Name[et]": "Ekraani serv",
        "Name[eu]": "Pantailaren ertza",
        "Name[fi]": "Näytön reuna",
        "Name[fr]": "Bord de l'écran",
        "Name[he]": "קצה מסך",
        "Name[hu]": "Képernyőszél",
        "Name[ia]": "Margines de schermo",
        "Name[id]": "Tepian Layar",
        "Name[it]": "Bordo dello schermo",
        "Name[ja]": "スクリーンエッジ",
        "Name[ka]": "ეკრანის წიბო",
        "Name[ko]": "화면 경계",
        "Name[nl]": "Schermrand",
        "Name[nn]": "Skjermkant",
        "Name[pl]": "Krawędź ekranu",
        "Name[pt]": "Extremo do Ecrã",
        "Name[pt_BR]": "Borda da tela",
        "Name[ro]": "Muchia ecranului",
        "Name[ru]": "Край экрана",
        "Name[sk]": "Hrana obrazovky",
        "Name[sl]": "Rob zaslona",
        "Name[sv]": "Skärmkant",
        "Name[ta]": "திரையின் ஓரம்",
        "Name[tr]": "Ekran Kenarı",
        "Name[uk]": "Край екрана",
        "Name[vi]": "Cạnh màn hình",
        "Name[x-test]": "xxScreen Edgexx",
        "Name[zh_CN]": "屏幕边缘高亮",
        "Name[zh_TW]": "螢幕角落"
    }
}
